package rules

import br.com.justoeu.drools.domain.Product

       rule "Offer for Diamond"
       	when
       		productObject: Product(type=="diamond")
       	then
       		productObject.setDiscount(15);
       	end
       rule "Offer for Gold"
       	when
       		productObject: Product(type=="gold")
       	then
       		productObject.setDiscount(25);
       	end